^C:\USERS\CARNI\SOURCE\REPOS\AMN.PLAYINGCARDS\AMN.PLAYINGCARDS\MAIN.CPP
C:\USERS\CARNI\SOURCE\REPOS\AMN.PLAYINGCARDS\AMN.PLAYINGCARDS\DEBUG\VC142.PDB
C:\USERS\CARNI\SOURCE\REPOS\AMN.PLAYINGCARDS\AMN.PLAYINGCARDS\DEBUG\VC142.IDB
C:\USERS\CARNI\SOURCE\REPOS\AMN.PLAYINGCARDS\AMN.PLAYINGCARDS\DEBUG\MAIN.OBJ
